{
	"description": "",
	"displayName": "Cave",
	"displayNameOrNull": null,
	"name": "Cave",
	"url": "http://localhost:61155/job/Cave/",
	"buildable": true,
	"builds": [],
	"color": "blue",
	"firstBuild": null,
	"inQueue": false,
	"keepDependencies": false,
	"lastBuild": null,
	"nextBuildNumber": 2,
	"queueItem": null,
	"concurrentBuild": false,
	"downstreamProjects": [],
	"scm": {},
	"upstreamProjects": []
}
