{
	"actions": [],
	"description": "",
	"displayName": "scheduling-builds",
	"displayNameOrNull": null,
	"name": "scheduling-builds",
	"url": "http://localhost:61155/job/scheduling-builds/",
	"buildable": true,
	"builds": [],
	"color": "blue",
	"firstBuild": null,
	"healthReport": [],
	"inQueue": false,
	"keepDependencies": false,
	"lastBuild": null,
	"lastCompletedBuild": null,
	"lastFailedBuild": null,
	"lastStableBuild": null,
	"lastSuccessfulBuild": null,
	"lastUnstableBuild": null,
	"lastUnsuccessfulBuild": null,
	"nextBuildNumber": 1,
	"property": [],
	"queueItem": null,
	"concurrentBuild": false,
	"downstreamProjects": [],
	"scm": {},
	"upstreamProjects": []
}
