{
	"actions": [],
	"description": "",
	"displayName": "Successful-job",
	"displayNameOrNull": null,
	"name": "Successful-job",
	"url": "http://localhost:61155/job/Successful-job/",
	"buildable": true,
	"builds": [
		{
			"number": 10,
			"url": "http://localhost:61155/job/Successful-job/10/"
		}
	],
	"color": "blue",
	"firstBuild": {
		"number": 7,
		"url": "http://localhost:61155/job/Successful-job/10/"
	},
	"healthReport": [
		{
			"description": "Build stability: 3 out of the last 5 builds failed.",
			"iconUrl": "health-20to39.png",
			"score": 40
		},
		{
			"description": "Test Result: 0 tests failing out of a total of 3,121 tests.",
			"iconUrl": "health-80plus.png",
			"score": 100
		}
	],
	"inQueue": false,
	"keepDependencies": false,
	"lastBuild": {
		"number": 10,
		"url": "http://localhost:61155/job/Successful-job/10/"
	},
	"lastCompletedBuild": {
		"number": 10,
		"url": "http://localhost:61155/job/Successful-job/10/"
	},
	"lastFailedBuild": {
		"number": 10,
		"url": "http://localhost:61155/job/Successful-job/10/"
	},
	"lastStableBuild": {
		"number": 8,
		"url": "http://localhost:61155/job/Successful-job/8/"
	},
	"lastSuccessfulBuild": {
		"number": 8,
		"url": "http://localhost:61155/job/Successful-job/8/"
	},
	"lastUnstableBuild": {
		"number": 7,
		"url": "http://localhost:61155/job/Successful-job/7/"
	},
	"lastUnsuccessfulBuild": {
		"number": 10,
		"url": "http://localhost:61155/job/Successful-job/10/"
	},
	"nextBuildNumber": 11,
	"property": [],
	"queueItem": null,
	"concurrentBuild": false,
	"downstreamProjects": [],
	"scm": {},
	"upstreamProjects": []
}
