{
	"request": {
		"method": "GET",
		"urlPath": "/job/busy-job/api/json/"
	},
	"response": {
		"status": 200,
		"headers": {
			"Content-Type": "application/json",
			"X-BuildCount": "500"
		},
		"bodyFileName": "busy-job.json",
		"transformers": [
			"loads-of-builds"
		]
	}
}
