{
	"request": {
		"method": "GET",
		"urlPath": "/job/Cave/api/json/"
	},
	"response": {
		"status": 200,
		"headers": {
			"Content-Type": "application/json",
			"X-BuildCount": "200"
		},
		"bodyFileName": "cave-api.json",
		"transformers": [
			"loads-of-builds"
		]
	}
}
