{
	"request": {
		"method": "GET",
		"urlPath": "/job/scheduling-builds/api/json/"
	},
	"response": {
		"status": 200,
		"fixedDelayMilliseconds": 85000,
		"bodyFileName": "scheduling-builds.json",
		"headers": {
			"Content-Type": "application/json"
		}
	}
}
